{
  "ids": {
    "User": 2,
    "AccessToken": 2,
    "ACL": 1,
    "RoleMapping": 1,
    "Role": 1,
    "Producto": 2,
    "Cliente": 2,
    "Vendedor": 2,
    "Venta": 5,
    "Pago": 1
  },
  "models": {
    "User": {
      "1": "{\"username\":\"admin\",\"password\":\"$2a$10$UQH7zC/VowsizqSqru2qHexrK.TCaDXVo4dfvd3SSruTXYeWTT3a6\",\"email\":\"admin@admin.com\",\"id\":1}"
    },
    "AccessToken": {
      "pYApsYwIVdS91kMRrHg2UcllAg4ezDmqFGNHFDhRXIGrIhNU5HHs5o6ArwndgPxH": "{\"id\":\"pYApsYwIVdS91kMRrHg2UcllAg4ezDmqFGNHFDhRXIGrIhNU5HHs5o6ArwndgPxH\",\"ttl\":1209600,\"created\":\"2020-07-29T16:40:30.342Z\",\"userId\":1}"
    },
    "ACL": {},
    "RoleMapping": {},
    "Role": {},
    "Producto": {
      "1": "{\"nombre\":\"bicicleta\",\"descripcion\":\"Franjas blancas\",\"precio\":\"10000\",\"tipo\":\"paseo\",\"rodado\":\"24\",\"color\":\"roja\",\"stock\":5,\"id\":1}"
    },
    "Cliente": {
      "1": "{\"nombre\":\"Gustavo Trovant\",\"direccion\":\"Juan Manuel de Rosas 1560\",\"localidad\":\"rosario\",\"categoriaCliente\":\"mala\",\"id\":1,\"observaciones\":\"Vive al lado de la iglesia\"}"
    },
    "Vendedor": {
      "1": "{\"nombre\":\"José Gutierrez\",\"apellido\":\"area\",\"id\":1}"
    },
    "Venta": {
      "4": "{\"fecha\":\"2020-07-18T00:00:00.000Z\",\"vendedorId\":1,\"clienteId\":1,\"productoId\":1,\"id\":4}"
    },
    "Pago": {}
  }
}