{
  "ids": {
    "User": 1,
    "AccessToken": 1,
    "ACL": 1,
    "RoleMapping": 1,
    "Role": 1,
    "Cliente": 3,
    "Vendedor": 2,
    "Venta": 5,
    "Pago": 1,
    "Product": 3,
    "Cuota": 5,
    "VentaProducto": 5
  },
  "models": {
    "User": {},
    "AccessToken": {},
    "ACL": {},
    "RoleMapping": {},
    "Role": {},
    "Cliente": {
      "1": "{\"nombre\":\"Gustavo\",\"apellido\":\"Trovant\",\"documentoTipo\":\"dni\",\"documento\":17120458,\"telefono\":\"4751144\",\"direccion\":\"J M de Rosas 1802\",\"localidad\":\"rosario\",\"categoriaCliente\":\"buena\",\"observaciones\":\"Nuevo\",\"id\":1}",
      "2": "{\"nombre\":\"Gustavo\",\"apellido\":\"Perez\",\"documentoTipo\":\"lc\",\"documento\":17120458,\"telefono\":\"4751144\",\"direccion\":\"J M de Rosas 1802\",\"localidad\":\"oliveros\",\"categoriaCliente\":\"buena\",\"observaciones\":\"Nuevo\",\"vendedorId\":1,\"id\":2}"
    },
    "Vendedor": {
      "1": "{\"nombre\":\"Alberto\",\"apellido\":\"Perez\",\"dni\":\"35703579\",\"direccion\":\"Salta 2145\",\"telefono\":\"4751144\",\"mail\":\"alberto@gmail.com\",\"zona\":\"1\",\"comision\":\"10%\",\"id\":1}"
    },
    "Venta": {
      "4": "{\"fecha\":\"2020-11-05T14:54:58.994Z\",\"observaciones\":\"\",\"descuento\":0,\"entrega\":0,\"cuotas\":1,\"total\":10000,\"clienteId\":1,\"id\":4}"
    },
    "Pago": {},
    "Product": {
      "1": "{\"nombre\":\"bicicleta\",\"descripcion\":\"Con rayas blancas\",\"precio\":\"10000\",\"tipo\":\"paseo\",\"rodado\":\"20\",\"color\":\"negra\",\"stock\":2,\"id\":1}",
      "2": "{\"nombre\":\"bicicleta\",\"descripcion\":\"Con rayas verdes\",\"precio\":\"20000\",\"tipo\":\"mountainBike\",\"rodado\":\"26\",\"color\":\"azul\",\"stock\":3,\"id\":2}"
    },
    "Cuota": {
      "1": "{\"fechaVencimiento\":\"2020-12-04T14:31:05.905Z\",\"importe\":0,\"numeroCuota\":1,\"montoTotal\":0,\"montoActualizado\":0,\"estaPaga\":false,\"ventaId\":1,\"id\":1}",
      "2": "{\"fechaVencimiento\":\"2020-12-04T14:31:53.745Z\",\"importe\":0,\"numeroCuota\":1,\"montoTotal\":0,\"montoActualizado\":0,\"estaPaga\":false,\"ventaId\":2,\"id\":2}",
      "3": "{\"fechaVencimiento\":\"2020-12-04T14:36:38.117Z\",\"importe\":0,\"numeroCuota\":1,\"montoTotal\":0,\"montoActualizado\":0,\"estaPaga\":false,\"ventaId\":3,\"id\":3}",
      "4": "{\"fechaVencimiento\":\"2020-12-05T14:54:58.994Z\",\"importe\":0,\"numeroCuota\":1,\"montoTotal\":0,\"montoActualizado\":0,\"estaPaga\":false,\"ventaId\":4,\"id\":4}"
    },
    "VentaProducto": {
      "1": "{\"cantidad\":1,\"ventaId\":1,\"productoId\":1,\"id\":1}",
      "2": "{\"cantidad\":0,\"ventaId\":2,\"productoId\":1,\"id\":2}",
      "3": "{\"cantidad\":1,\"ventaId\":3,\"productoId\":1,\"id\":3}",
      "4": "{\"cantidad\":1,\"ventaId\":4,\"productoId\":1,\"id\":4}"
    }
  }
}